^C:\USERS\CALVIN\DOCUMENTS\FAU FALL 2014\FOUNDATIONS OF COMPUTER SCIENCE LAB\VS PROJECTS\LAB 6\CSTYLESTRINGS\CSTYLESTRINGSEXP4\CSTYLESTRINGSEXP4\CSTYLESTRINGS4.CPP
C:\USERS\CALVIN\DOCUMENTS\FAU FALL 2014\FOUNDATIONS OF COMPUTER SCIENCE LAB\VS PROJECTS\LAB 6\CSTYLESTRINGS\CSTYLESTRINGSEXP4\CSTYLESTRINGSEXP4\DEBUG\VC120.PDB
C:\USERS\CALVIN\DOCUMENTS\FAU FALL 2014\FOUNDATIONS OF COMPUTER SCIENCE LAB\VS PROJECTS\LAB 6\CSTYLESTRINGS\CSTYLESTRINGSEXP4\CSTYLESTRINGSEXP4\DEBUG\VC120.IDB
C:\USERS\CALVIN\DOCUMENTS\FAU FALL 2014\FOUNDATIONS OF COMPUTER SCIENCE LAB\VS PROJECTS\LAB 6\CSTYLESTRINGS\CSTYLESTRINGSEXP4\CSTYLESTRINGSEXP4\DEBUG\CSTYLESTRINGS4.OBJ
