^C:\USERS\CALVIN\DOCUMENTS\FAU FALL 2014\FOUNDATIONS OF COMPUTER SCIENCE LAB\VS PROJECTS\LAB 6\CSTYLESTRINGS\CSTYLESTRINGSEXP4\CSTYLESTRINGSEXP4\DEBUG\CSTYLESTRINGS4.OBJ
C:\USERS\CALVIN\DOCUMENTS\FAU FALL 2014\FOUNDATIONS OF COMPUTER SCIENCE LAB\VS PROJECTS\LAB 6\CSTYLESTRINGS\CSTYLESTRINGSEXP4\DEBUG\CSTYLESTRINGSEXP4.ILK
C:\USERS\CALVIN\DOCUMENTS\FAU FALL 2014\FOUNDATIONS OF COMPUTER SCIENCE LAB\VS PROJECTS\LAB 6\CSTYLESTRINGS\CSTYLESTRINGSEXP4\DEBUG\CSTYLESTRINGSEXP4.EXE
C:\USERS\CALVIN\DOCUMENTS\FAU FALL 2014\FOUNDATIONS OF COMPUTER SCIENCE LAB\VS PROJECTS\LAB 6\CSTYLESTRINGS\CSTYLESTRINGSEXP4\DEBUG\CSTYLESTRINGSEXP4.PDB
