^C:\USERS\CALVIN\DOCUMENTS\FAU FALL 2014\FOUNDATIONS OF COMPUTER SCIENCE LAB\VS PROJECTS\LAB 4\MSVS DEBUGGER\ATT_BUG\ATT_BUG\DEBUG\ATT_BUG.OBJ
C:\USERS\CALVIN\DOCUMENTS\FAU FALL 2014\FOUNDATIONS OF COMPUTER SCIENCE LAB\VS PROJECTS\LAB 4\MSVS DEBUGGER\ATT_BUG\DEBUG\ATT_BUG.ILK
C:\USERS\CALVIN\DOCUMENTS\FAU FALL 2014\FOUNDATIONS OF COMPUTER SCIENCE LAB\VS PROJECTS\LAB 4\MSVS DEBUGGER\ATT_BUG\DEBUG\ATT_BUG.EXE
C:\USERS\CALVIN\DOCUMENTS\FAU FALL 2014\FOUNDATIONS OF COMPUTER SCIENCE LAB\VS PROJECTS\LAB 4\MSVS DEBUGGER\ATT_BUG\DEBUG\ATT_BUG.PDB
