^C:\USERS\CALVIN\DOCUMENTS\FAU FALL 2014\FOUNDATIONS OF COMPUTER SCIENCE LAB\VS PROJECTS\LAB 6\CSTYLESTRINGS\DYNAMICARRAYSEXP4\DYNAMICARRAYSEXP4\DYNAMICARRAYS4.CPP
C:\USERS\CALVIN\DOCUMENTS\FAU FALL 2014\FOUNDATIONS OF COMPUTER SCIENCE LAB\VS PROJECTS\LAB 6\CSTYLESTRINGS\DYNAMICARRAYSEXP4\DYNAMICARRAYSEXP4\DEBUG\VC120.PDB
C:\USERS\CALVIN\DOCUMENTS\FAU FALL 2014\FOUNDATIONS OF COMPUTER SCIENCE LAB\VS PROJECTS\LAB 6\CSTYLESTRINGS\DYNAMICARRAYSEXP4\DYNAMICARRAYSEXP4\DEBUG\VC120.IDB
C:\USERS\CALVIN\DOCUMENTS\FAU FALL 2014\FOUNDATIONS OF COMPUTER SCIENCE LAB\VS PROJECTS\LAB 6\CSTYLESTRINGS\DYNAMICARRAYSEXP4\DYNAMICARRAYSEXP4\DEBUG\DYNAMICARRAYS4.OBJ
