^C:\USERS\CALVIN\DOCUMENTS\FAU FALL 2014\FOUNDATIONS OF COMPUTER SCIENCE LAB\VS PROJECTS\LAB 5\FUNCTIONNAMESCOPE4A\FUNCTIONNAMESCOPE4A\DEBUG\SOURCE.OBJ
C:\USERS\CALVIN\DOCUMENTS\FAU FALL 2014\FOUNDATIONS OF COMPUTER SCIENCE LAB\VS PROJECTS\LAB 5\FUNCTIONNAMESCOPE4A\DEBUG\FUNCTIONNAMESCOPE4A.ILK
C:\USERS\CALVIN\DOCUMENTS\FAU FALL 2014\FOUNDATIONS OF COMPUTER SCIENCE LAB\VS PROJECTS\LAB 5\FUNCTIONNAMESCOPE4A\DEBUG\FUNCTIONNAMESCOPE4A.EXE
C:\USERS\CALVIN\DOCUMENTS\FAU FALL 2014\FOUNDATIONS OF COMPUTER SCIENCE LAB\VS PROJECTS\LAB 5\FUNCTIONNAMESCOPE4A\DEBUG\FUNCTIONNAMESCOPE4A.PDB
