^C:\USERS\CALVIN\DOCUMENTS\VISUAL STUDIO 2012\PROJECTS\NAMESPACE2\NAMESPACE2\NAMESPACE2.CPP
C:\USERS\CALVIN\DOCUMENTS\VISUAL STUDIO 2012\PROJECTS\NAMESPACE2\NAMESPACE2\DEBUG\NAMESPACE2.OBJ
C:\USERS\CALVIN\DOCUMENTS\VISUAL STUDIO 2012\PROJECTS\NAMESPACE2\NAMESPACE2\DEBUG\VC110.PDB
