^C:\USERS\CALVIN\DOCUMENTS\FAU FALL 2014\FOUNDATIONS OF COMPUTER SCIENCE LAB\VS PROJECTS\LAB 7\STRUCTURES\INTROCLASSESEXP1\INTROCLASSESEXP1\INTROCLASSES1.CPP
C:\USERS\CALVIN\DOCUMENTS\FAU FALL 2014\FOUNDATIONS OF COMPUTER SCIENCE LAB\VS PROJECTS\LAB 7\STRUCTURES\INTROCLASSESEXP1\INTROCLASSESEXP1\DEBUG\VC120.PDB
C:\USERS\CALVIN\DOCUMENTS\FAU FALL 2014\FOUNDATIONS OF COMPUTER SCIENCE LAB\VS PROJECTS\LAB 7\STRUCTURES\INTROCLASSESEXP1\INTROCLASSESEXP1\DEBUG\VC120.IDB
C:\USERS\CALVIN\DOCUMENTS\FAU FALL 2014\FOUNDATIONS OF COMPUTER SCIENCE LAB\VS PROJECTS\LAB 7\STRUCTURES\INTROCLASSESEXP1\INTROCLASSESEXP1\DEBUG\INTROCLASSES1.OBJ
