^C:\USERS\CALVIN\DOCUMENTS\FAU FALL 2014\FOUNDATIONS OF COMPUTER SCIENCE LAB\VS PROJECTS\LAB 7\STRUCTURES\INTROCLASSESEXP1\INTROCLASSESEXP1\DEBUG\INTROCLASSES1.OBJ
C:\USERS\CALVIN\DOCUMENTS\FAU FALL 2014\FOUNDATIONS OF COMPUTER SCIENCE LAB\VS PROJECTS\LAB 7\STRUCTURES\INTROCLASSESEXP1\DEBUG\INTROCLASSESEXP1.ILK
C:\USERS\CALVIN\DOCUMENTS\FAU FALL 2014\FOUNDATIONS OF COMPUTER SCIENCE LAB\VS PROJECTS\LAB 7\STRUCTURES\INTROCLASSESEXP1\DEBUG\INTROCLASSESEXP1.EXE
C:\USERS\CALVIN\DOCUMENTS\FAU FALL 2014\FOUNDATIONS OF COMPUTER SCIENCE LAB\VS PROJECTS\LAB 7\STRUCTURES\INTROCLASSESEXP1\DEBUG\INTROCLASSESEXP1.PDB
