^C:\USERS\CALVIN\DOCUMENTS\FAU FALL 2014\FOUNDATIONS OF COMPUTER SCIENCE LAB\VS PROJECTS\LAB 9\INHERITANCEEXP2\INHERITANCEEXP2\INHERITANCEEXP2.CPP
C:\USERS\CALVIN\DOCUMENTS\FAU FALL 2014\FOUNDATIONS OF COMPUTER SCIENCE LAB\VS PROJECTS\LAB 9\INHERITANCEEXP2\INHERITANCEEXP2\DEBUG\VC120.PDB
C:\USERS\CALVIN\DOCUMENTS\FAU FALL 2014\FOUNDATIONS OF COMPUTER SCIENCE LAB\VS PROJECTS\LAB 9\INHERITANCEEXP2\INHERITANCEEXP2\DEBUG\VC120.IDB
C:\USERS\CALVIN\DOCUMENTS\FAU FALL 2014\FOUNDATIONS OF COMPUTER SCIENCE LAB\VS PROJECTS\LAB 9\INHERITANCEEXP2\INHERITANCEEXP2\DEBUG\INHERITANCEEXP2.OBJ
