^C:\USERS\CALVIN\DOCUMENTS\FAU FALL 2014\FOUNDATIONS OF COMPUTER SCIENCE LAB\VS PROJECTS\LAB 9\FRIENDOPOVERLOADINGEXP1\FRIENDOPOVERLOADINGEXP1\DEBUG\FRIENDOPOVERLOADING1.OBJ
C:\USERS\CALVIN\DOCUMENTS\FAU FALL 2014\FOUNDATIONS OF COMPUTER SCIENCE LAB\VS PROJECTS\LAB 9\FRIENDOPOVERLOADINGEXP1\DEBUG\FRIENDOPOVERLOADINGEXP1.ILK
C:\USERS\CALVIN\DOCUMENTS\FAU FALL 2014\FOUNDATIONS OF COMPUTER SCIENCE LAB\VS PROJECTS\LAB 9\FRIENDOPOVERLOADINGEXP1\DEBUG\FRIENDOPOVERLOADINGEXP1.EXE
C:\USERS\CALVIN\DOCUMENTS\FAU FALL 2014\FOUNDATIONS OF COMPUTER SCIENCE LAB\VS PROJECTS\LAB 9\FRIENDOPOVERLOADINGEXP1\DEBUG\FRIENDOPOVERLOADINGEXP1.PDB
