^C:\USERS\CALVIN\DOCUMENTS\VISUAL STUDIO 2012\PROJECTS\NAMESPACE1\NAMESPACE1\NAMESPACE1.CPP|C:\USERS\CALVIN\DOCUMENTS\VISUAL STUDIO 2012\PROJECTS\NAMESPACE1\NAMESPACE1\NAMESPACE2.CPP
C:\USERS\CALVIN\DOCUMENTS\VISUAL STUDIO 2012\PROJECTS\NAMESPACE1\NAMESPACE1\DEBUG\NAMESPACE1.OBJ
C:\USERS\CALVIN\DOCUMENTS\VISUAL STUDIO 2012\PROJECTS\NAMESPACE1\NAMESPACE1\DEBUG\NAMESPACE2.OBJ
^C:\USERS\CALVIN\DOCUMENTS\VISUAL STUDIO 2012\PROJECTS\NAMESPACE1\NAMESPACE1\NAMESPACE1.CPP
C:\USERS\CALVIN\DOCUMENTS\VISUAL STUDIO 2012\PROJECTS\NAMESPACE1\NAMESPACE1\DEBUG\VC110.PDB
^C:\USERS\CALVIN\DOCUMENTS\VISUAL STUDIO 2012\PROJECTS\NAMESPACE1\NAMESPACE1\NAMESPACE2.CPP
C:\USERS\CALVIN\DOCUMENTS\VISUAL STUDIO 2012\PROJECTS\NAMESPACE1\NAMESPACE1\DEBUG\VC110.PDB
