^C:\USERS\CALVIN\DOCUMENTS\FAU FALL 2014\FOUNDATIONS OF COMPUTER SCIENCE LAB\VS PROJECTS\LAB 6\CSTYLESTRINGS\CSTYLESTRINGSEXP2\CSTYLESTRINGSEXP2\CSTYLESTRINGS2.CPP
C:\USERS\CALVIN\DOCUMENTS\FAU FALL 2014\FOUNDATIONS OF COMPUTER SCIENCE LAB\VS PROJECTS\LAB 6\CSTYLESTRINGS\CSTYLESTRINGSEXP2\CSTYLESTRINGSEXP2\DEBUG\VC120.PDB
C:\USERS\CALVIN\DOCUMENTS\FAU FALL 2014\FOUNDATIONS OF COMPUTER SCIENCE LAB\VS PROJECTS\LAB 6\CSTYLESTRINGS\CSTYLESTRINGSEXP2\CSTYLESTRINGSEXP2\DEBUG\VC120.IDB
C:\USERS\CALVIN\DOCUMENTS\FAU FALL 2014\FOUNDATIONS OF COMPUTER SCIENCE LAB\VS PROJECTS\LAB 6\CSTYLESTRINGS\CSTYLESTRINGSEXP2\CSTYLESTRINGSEXP2\DEBUG\CSTYLESTRINGS2.OBJ
