^C:\USERS\CALVIN\DOCUMENTS\FAU FALL 2014\FOUNDATIONS OF COMPUTER SCIENCE LAB\VS PROJECTS\LAB 8\LINKEDLISTEXP3\LINKEDLISTEXP3\DEBUG\LINKEDLIST3.OBJ
C:\USERS\CALVIN\DOCUMENTS\FAU FALL 2014\FOUNDATIONS OF COMPUTER SCIENCE LAB\VS PROJECTS\LAB 8\LINKEDLISTEXP3\DEBUG\LINKEDLISTEXP3.ILK
C:\USERS\CALVIN\DOCUMENTS\FAU FALL 2014\FOUNDATIONS OF COMPUTER SCIENCE LAB\VS PROJECTS\LAB 8\LINKEDLISTEXP3\DEBUG\LINKEDLISTEXP3.EXE
C:\USERS\CALVIN\DOCUMENTS\FAU FALL 2014\FOUNDATIONS OF COMPUTER SCIENCE LAB\VS PROJECTS\LAB 8\LINKEDLISTEXP3\DEBUG\LINKEDLISTEXP3.PDB
