^C:\USERS\CALVIN\DOCUMENTS\FAU FALL 2014\FOUNDATIONS OF COMPUTER SCIENCE LAB\VS PROJECTS\LAB 7\STRUCTURES\STRUCTURESEXP1\STRUCTURESEXP1\STRUCTURESDEC1.CPP
C:\USERS\CALVIN\DOCUMENTS\FAU FALL 2014\FOUNDATIONS OF COMPUTER SCIENCE LAB\VS PROJECTS\LAB 7\STRUCTURES\STRUCTURESEXP1\STRUCTURESEXP1\DEBUG\VC120.PDB
C:\USERS\CALVIN\DOCUMENTS\FAU FALL 2014\FOUNDATIONS OF COMPUTER SCIENCE LAB\VS PROJECTS\LAB 7\STRUCTURES\STRUCTURESEXP1\STRUCTURESEXP1\DEBUG\VC120.IDB
C:\USERS\CALVIN\DOCUMENTS\FAU FALL 2014\FOUNDATIONS OF COMPUTER SCIENCE LAB\VS PROJECTS\LAB 7\STRUCTURES\STRUCTURESEXP1\STRUCTURESEXP1\DEBUG\STRUCTURESDEC1.OBJ
