^C:\USERS\TRAVI\GOOGLE DRIVE\FALL 2015\DATA STRUCTURES\ASSIGNMENTS\ASSIGNMENT 6\DOUBLY LINKED CIRCULAR QUEUE\DOUBLY LINKED CIRCULAR QUEUE\BQUEUE.CPP
/c /ZI /nologo /W3 /WX- /sdl /Od /Oy- /D WIN32 /D _DEBUG /D _CONSOLE /D _LIB /D _UNICODE /D UNICODE /Gm /EHsc /RTC1 /MDd /GS /fp:precise /Zc:wchar_t /Zc:forScope /Fo"DEBUG\\" /Fd"DEBUG\VC120.PDB" /Gd /TP /analyze- C:\USERS\TRAVI\GOOGLE DRIVE\FALL 2015\DATA STRUCTURES\ASSIGNMENTS\ASSIGNMENT 6\DOUBLY LINKED CIRCULAR QUEUE\DOUBLY LINKED CIRCULAR QUEUE\BQUEUE.CPP
^C:\USERS\TRAVI\GOOGLE DRIVE\FALL 2015\DATA STRUCTURES\ASSIGNMENTS\ASSIGNMENT 6\DOUBLY LINKED CIRCULAR QUEUE\DOUBLY LINKED CIRCULAR QUEUE\BQUEUE_DRIVER.CPP
/c /ZI /nologo /W3 /WX- /sdl /Od /Oy- /D WIN32 /D _DEBUG /D _CONSOLE /D _LIB /D _UNICODE /D UNICODE /Gm /EHsc /RTC1 /MDd /GS /fp:precise /Zc:wchar_t /Zc:forScope /Fo"DEBUG\\" /Fd"DEBUG\VC120.PDB" /Gd /TP /analyze- C:\USERS\TRAVI\GOOGLE DRIVE\FALL 2015\DATA STRUCTURES\ASSIGNMENTS\ASSIGNMENT 6\DOUBLY LINKED CIRCULAR QUEUE\DOUBLY LINKED CIRCULAR QUEUE\BQUEUE_DRIVER.CPP
