^C:\USERS\TRAVI\GOOGLE DRIVE\FALL 2015\DATA STRUCTURES\ASSIGNMENTS\ASSIGNMENT 6\DOUBLY LINKED CIRCULAR QUEUE\DOUBLY LINKED CIRCULAR QUEUE\BQUEUE.CPP|C:\USERS\TRAVI\GOOGLE DRIVE\FALL 2015\DATA STRUCTURES\ASSIGNMENTS\ASSIGNMENT 6\DOUBLY LINKED CIRCULAR QUEUE\DOUBLY LINKED CIRCULAR QUEUE\BQUEUE_DRIVER.CPP
C:\USERS\TRAVI\GOOGLE DRIVE\FALL 2015\DATA STRUCTURES\ASSIGNMENTS\ASSIGNMENT 6\DOUBLY LINKED CIRCULAR QUEUE\DOUBLY LINKED CIRCULAR QUEUE\DEBUG\VC120.PDB
C:\USERS\TRAVI\GOOGLE DRIVE\FALL 2015\DATA STRUCTURES\ASSIGNMENTS\ASSIGNMENT 6\DOUBLY LINKED CIRCULAR QUEUE\DOUBLY LINKED CIRCULAR QUEUE\DEBUG\VC120.IDB
C:\USERS\TRAVI\GOOGLE DRIVE\FALL 2015\DATA STRUCTURES\ASSIGNMENTS\ASSIGNMENT 6\DOUBLY LINKED CIRCULAR QUEUE\DOUBLY LINKED CIRCULAR QUEUE\DEBUG\BQUEUE_DRIVER.OBJ
C:\USERS\TRAVI\GOOGLE DRIVE\FALL 2015\DATA STRUCTURES\ASSIGNMENTS\ASSIGNMENT 6\DOUBLY LINKED CIRCULAR QUEUE\DOUBLY LINKED CIRCULAR QUEUE\DEBUG\BQUEUE.OBJ
^C:\USERS\TRAVI\GOOGLE DRIVE\FALL 2015\DATA STRUCTURES\ASSIGNMENTS\ASSIGNMENT 6\DOUBLY LINKED CIRCULAR QUEUE\DOUBLY LINKED CIRCULAR QUEUE\BQUEUE.CPP
C:\USERS\TRAVI\GOOGLE DRIVE\FALL 2015\DATA STRUCTURES\ASSIGNMENTS\ASSIGNMENT 6\DOUBLY LINKED CIRCULAR QUEUE\DOUBLY LINKED CIRCULAR QUEUE\DEBUG\VC120.PDB
C:\USERS\TRAVI\GOOGLE DRIVE\FALL 2015\DATA STRUCTURES\ASSIGNMENTS\ASSIGNMENT 6\DOUBLY LINKED CIRCULAR QUEUE\DOUBLY LINKED CIRCULAR QUEUE\DEBUG\VC120.IDB
C:\USERS\TRAVI\GOOGLE DRIVE\FALL 2015\DATA STRUCTURES\ASSIGNMENTS\ASSIGNMENT 6\DOUBLY LINKED CIRCULAR QUEUE\DOUBLY LINKED CIRCULAR QUEUE\DEBUG\BQUEUE.OBJ
^C:\USERS\TRAVI\GOOGLE DRIVE\FALL 2015\DATA STRUCTURES\ASSIGNMENTS\ASSIGNMENT 6\DOUBLY LINKED CIRCULAR QUEUE\DOUBLY LINKED CIRCULAR QUEUE\BQUEUE_DRIVER.CPP
C:\USERS\TRAVI\GOOGLE DRIVE\FALL 2015\DATA STRUCTURES\ASSIGNMENTS\ASSIGNMENT 6\DOUBLY LINKED CIRCULAR QUEUE\DOUBLY LINKED CIRCULAR QUEUE\DEBUG\VC120.PDB
C:\USERS\TRAVI\GOOGLE DRIVE\FALL 2015\DATA STRUCTURES\ASSIGNMENTS\ASSIGNMENT 6\DOUBLY LINKED CIRCULAR QUEUE\DOUBLY LINKED CIRCULAR QUEUE\DEBUG\VC120.IDB
C:\USERS\TRAVI\GOOGLE DRIVE\FALL 2015\DATA STRUCTURES\ASSIGNMENTS\ASSIGNMENT 6\DOUBLY LINKED CIRCULAR QUEUE\DOUBLY LINKED CIRCULAR QUEUE\DEBUG\BQUEUE_DRIVER.OBJ
