hChannelTemp	sChannelTemp	vChannelTemp	YChannelTemp	CrChannelTemp	CbChannelTemp	grayChannelTemp	averageColorChannelTemp	bChannelTemp	gChannelTemp	rChannelTemp	bGreyChannelTemp	gGreyChannelTemp	rGreyChannelTemp
50.2053		16.9911		121.739		117.665		129.622		126.601		117.665		117.387			115.275		117.021		119.864		125.539		164.593		183.821		
46.1387		16.6101		121.742		117.851		129.459		126.604		117.851		117.526			115.447		117.272		119.86		168.337		158.979		186.604		
58.9455		16.8371		121.784		117.708		129.689		126.721		117.708		117.484			115.481		116.969		120.001		159.338		167.349		187.297		
47.9757		16.478		121.659		117.791		129.517		126.63		117.791		117.492			115.422		117.165		119.888		139.816		162.564		111.208		
46.2389		17.8849		121.879		117.937		129.453		126.28		117.937		117.461			114.934		117.492		119.956		141.078		158.674		111.452		
30.1624		18.9524		122.05		117.867		129.629		126.066		117.867		117.329			114.484		117.405		120.097		143.673		124.104		174.323		
48.1119		17.0877		121.759		117.833		129.434		126.562		117.833		117.481			115.314		117.307		119.821		137.927		122.717		173.288		
33.5071		18.9377		121.948		117.898		129.585		126.006		117.898		117.318			114.392		117.486		120.075		143.434		168.968		187.588		
37.8983		18.0795		121.922		117.853		129.529		126.287		117.853		117.38			114.852		117.304		119.983		140.035		168.361		186.973		
52.0736		18.181		122.055		117.839		129.712		126.373		117.839		117.454			115.008		117.16		120.193		137.183		169.262		188.597		
47.0979		18.5062		122.016		117.808		129.714		126.26		117.808		117.397			114.804		117.203		120.183		142.594		167.196		188.715		
35.9228		18.4912		122.261		118.077		129.697		126.212		118.077		117.605			114.93		117.502		120.384		135.557		170.54		186.785		
39.158		18.9108		122.341		118.051		129.71		126.218		118.051		117.603			114.911		117.488		120.411		143.697		170.366		186.857		
45.5995		18.5392		122.305		118.134		129.663		126.244		118.134		117.68			115.083		117.568		120.389		141.021		166.524		188.278		
28.3462		20.1015		122.581		118.106		129.901		125.921		118.106		117.547			114.447		117.512		120.682		142.242		167.737		188.435		
43.7837		18.4416		122.558		118.186		129.817		126.392		118.186		117.84			115.398		117.428		120.694		140.042		168.549		190.813		
33.2948		18.6507		122.332		118.082		129.717		126.219		118.082		117.62			114.935		117.463		120.462		140.922		169.642		185.587		
42.3523		18.6231		122.203		117.994		129.718		126.23		117.994		117.555			114.939		117.398		120.328		140.307		167.815		187.141		
44.4474		18.5624		122.128		118.027		129.615		126.21		118.027		117.536			114.874		117.516		120.219		136.412		170.139		191.323		
40.3015		18.6575		122.082		118.02		129.624		126.144		118.02		117.505			114.748		117.534		120.232		142.187		167.111		181.85		
45.6741		18.6064		122.27		117.996		129.711		126.318		117.996		117.597			115.083		117.37		120.337		136.802		167.282		187.434		
45.1232		18.1216		122.108		117.927		129.732		126.345		117.927		117.546			115.075		117.294		120.269		144.39		168.194		189.42		
41.3389		17.9271		122.093		117.89		129.629		126.409		117.89		117.513			115.118		117.265		120.155		141.998		169.591		187.829		
44.5239		17.8779		121.938		117.915		129.54		126.301		117.915		117.476			114.995		117.394		120.039		140.217		168.405		186.094		
45.1148		18.5805		122.003		117.938		129.554		126.201		117.938		117.439			114.784		117.453		120.079		137.823		168.72		186.594		
47.21		18.1952		121.964		117.818		129.658		126.342		117.818		117.412			114.951		117.221		120.062		139.052		169.539		187.691		
46.0329		17.8746		121.871		117.835		129.587		126.373		117.835		117.426			115.006		117.275		119.998		144.352		168.791		185.12		
48.1835		18.7654		122.099		117.854		129.698		126.269		117.854		117.417			114.835		117.226		120.191		141.618		166.709		187.938		
53.7581		18.314		121.984		117.886		129.604		126.301		117.886		117.448			114.927		117.331		120.087		140.607		167.241		185.84		
43.9419		17.242		121.796		117.808		129.508		126.457		117.808		117.434			115.151		117.239		119.914		136.004		169.875		185.347		
40.8458		18.3951		122.002		117.808		129.7		126.275		117.808		117.374			114.825		117.196		120.099		147.199		167.962		184.997		
44.6641		18.588		122.046		117.855		129.671		126.225		117.855		117.406			114.775		117.279		120.163		136.864		165.661		186.004		
48.1808		18.0612		121.984		117.886		129.582		126.372		117.886		117.483			115.053		117.298		120.097		134.735		168.334		186.695		
