hChannelTemp	sChannelTemp	vChannelTemp	YChannelTemp	CrChannelTemp	CbChannelTemp	grayChannelTemp	60.1962		11.9131		99.8824		98.1874		126.458		126.629		98.1874		97.2124			95.9447		99.8824		95.81		127.103		109.561		111.223		
55.643		11.9743		99.4731		97.8345		126.527		126.525		97.8345		96.839			95.3901		99.4728		95.654		124.946		105.879		131.22		
66.4297		12.8056		99.7819		97.9453		125.926		126.871		97.9453		96.9783			96.206		99.7819		94.9471		139.857		98.2352		134.826		
54.3404		13.5027		99.7636		98.0098		126.415		126.181		98.0098		96.793			94.8821		99.7636		95.7335		148.582		121.118		126.119		
54.8552		13.4495		99.9418		98.2095		126.379		126.391		98.2095		97.1002			95.5118		99.9418		95.8469		125.745		96.8558		119.128		
60.2459		11.3191		99.3641		97.8392		126.479		126.652		97.8392		96.8763			95.6835		99.3641		95.5813		114.773		131.486		134.739		
53.1897		11.646		99.5544		98.0644		126.71		126.46		98.0644		97.0741			95.5248		99.5544		96.143		158.922		150.009		106.914		
52.8777		11.2796		99.4891		98.133		126.829		126.434		98.133		97.1438			95.495		99.4891		96.4474		126.789		100.728		134.825		
58.148		11.5171		99.2042		97.6856		126.613		126.687		97.6856		96.8052			95.5892		99.2042		95.622		117.002		123.108		116.433		
56.0021		12.266		99.5822		97.958		126.553		126.508		97.958		96.9599			95.4743		99.5822		95.8233		144.626		103.077		137.416		
54.7207		13.1906		99.8239		98.2048		126.561		126.304		98.2048		97.0816			95.3203		99.8239		96.1005		117.311		116.853		126.307		
53.4087		12.7086		99.534		97.9843		126.655		126.402		97.9843		96.9939			95.2952		99.534		96.1525		127.059		127.388		135.783		
57.7202		13.3327		99.4843		97.8768		126.41		126.564		97.8768		96.9052			95.5748		99.4843		95.6566		146.742		114.206		120.142		
57.6977		13.2057		99.8972		98.182		126.313		126.516		98.182		97.1493			95.7473		99.8972		95.8035		119.508		103.995		138.449		
58.9474		11.2213		99.6105		98.0943		126.46		126.594		98.0943		97.0912			95.8277		99.6105		95.8354		130.578		135.573		140.968		
57.0157		14.7899		99.9158		98.0949		126.23		126.25		98.0949		96.8527			95.0851		99.9158		95.5573		146.806		127.956		143.617		
55.0718		12.0027		99.5727		98.1327		126.684		126.556		98.1327		97.1932			95.7491		99.5727		96.2577		129.842		113.384		117.336		
54.7122		11.8933		99.7636		98.1687		126.567		126.326		98.1687		97.0605			95.3691		99.7636		96.0488		116.19		119.981		130.306		
56.6998		13.5919		99.5588		97.8658		126.435		126.496		97.8658		96.8146			95.263		99.5588		95.622		149.483		111.718		118.445		
54.5074		11.6215		99.7228		98.1779		126.606		126.498		98.1779		97.1679			95.6634		99.7228		96.1176		127.905		128.508		105.402		
54.2432		13.1676		99.977		98.3026		126.582		126.208		98.3026		97.1087			95.1936		99.977		96.1557		131.277		120.884		105.267		
54.594		12.8703		99.7769		98.0556		126.44		126.271		98.0556		96.8511			95.0553		99.7769		95.721		137.752		116.088		114.724		
55.8064		12.4314		99.5934		98.003		126.621		126.399		98.003		96.9293			95.2934		99.5934		95.901		133.564		109.423		141.291		
55.6596		11.6495		99.6711		98.1495		126.744		126.533		98.1495		97.2055			95.755		99.6711		96.1903		137.943		114.327		119.595		
57.0254		11.5228		99.5694		97.9778		126.572		126.633		97.9778		97.0665			95.7435		99.5694		95.8865		152.501		104.475		116.849		
59.5056		12.9046		99.5993		97.9232		126.368		126.546		97.9232		96.8889			95.5384		99.5993		95.529		134.225		102.459		113.366		
60.323		12.1581		99.7459		98.0946		126.288		126.775		98.0946		97.216			96.237		99.7459		95.6652		140.553		134.946		138.196		
56.4979		11.7187		99.3809		97.8286		126.519		126.511		97.8286		96.8301			95.3892		99.3809		95.7202		129.863		101.81		134.711		
57.0429		10.2603		99.5269		98.0502		126.78		126.679		98.0502		97.1854			95.9113		99.5269		96.1179		150.041		121.486		138.785		
60.8197		11.1209		99.6285		98.0904		126.537		126.797		98.0904		97.2684			96.3109		99.6285		95.8658		144.333		125.942		112.463		
61.622		12.0603		99.6176		98.0027		126.289		126.751		98.0027		97.059			96.0313		99.6176		95.5281		118.321		122.379		110.844		
60.0449		11.797		99.5703		98.0331		126.623		126.651		98.0331		97.1106			95.8307		99.5703		95.9309		140.274		105.106		121.858		
51.7287		14.1814		99.919		98.2004		126.666		126.057		98.2004		96.9706			94.786		99.919		96.2069		126.801		138.028		126.79		
58.0461		12.0399		99.6271		98.0301		126.571		126.574		98.0301		97.0562			95.7042		99.6271		95.8375		112.647		115.295		125.322		
58.4772		10.8907		99.331		97.8522		126.536		126.725		97.8522		96.9863			95.8833		99.331		95.7447		137.941		118.295		100.875		
51.7204		13.5204		99.8398		98.1339		126.663		126.069		98.1339		96.8943			94.7535		99.8398		96.0895		117.827		147.283		115.874		
57.2405		10.4379		99.2574		97.9022		126.513		126.809		97.9022		97.0348			96.0428		99.2521		95.8094		145.977		143.157		150.834		
61.9309		13.3986		99.7633		97.8652		126.103		126.623		97.8652		96.8216			95.6395		99.7633		95.0621		119.491		118.57		132.611		
58.1504		11.7261		99.7287		98.1421		126.365		126.661		98.1421		97.1817			95.9923		99.7287		95.8242		107.27		94.0228		124.272		
62.534		11.5118		99.5		97.8478		126.353		126.831		97.8478		96.9919			96.0154		99.5		95.4604		136.773		118.609		120.232		
61.9902		10.8378		99.3384		97.8676		126.473		126.918		97.8676		97.0751			96.2473		99.3384		95.6395		105.053		151.273		124.988		
55.1803		11.4412		99.5748		98.1176		126.726		126.464		98.1176		97.1091			95.5765		99.5748		96.1761		129.544		106.202		137.93		
56.2787		11.8605		99.385		97.789		126.53		126.525		97.789		96.7804			95.3617		99.385		95.5946		144.382		109.779		127.905		
58.5355		11.708		99.5257		97.8833		126.432		126.576		97.8833		96.8873			95.5556		99.5257		95.5807		139.134		110.006		128.941		
54.5349		13.9066		99.9007		98.1238		126.496		126.12		98.1238		96.8571			94.8032		99.9007		95.8673		102.435		138.36		118.719		
51.8478		11.2804		99.4391		98.0098		126.84		126.54		98.0098		97.1136			95.607		99.4391		96.2946		112.849		128.001		122.251		
53.8939		13.5041		99.6605		97.9876		126.464		126.267		97.9876		96.8493			95.0177		99.6605		95.8697		129.712		148.79		110.766		
54.9362		12.1498		99.737		98.1761		126.688		126.426		98.1761		97.1539			95.5		99.737		96.2246		119.38		112.342		118.582		
57.1123		12.6495		99.815		98.1962		126.457		126.447		98.1962		97.1211			95.5981		99.815		95.9501		137.674		107.299		134.552		
51.4332		11.4125		99.5505		98.1445		126.733		126.389		98.1445		97.0946			95.4031		99.5505		96.3301		126.055		110.217		115.108		
51.8661		12.2255		99.5819		98.1572		126.851		126.361		98.1572		97.1147			95.3366		99.5819		96.4255		139.4		107.991		132.544		
53.0157		14.1806		99.9084		98.1005		126.47		126.079		98.1005		96.8117			94.7095		99.9084		95.8171		135.085		101.003		133.838		
61.0898		10.875		99.5975		98.0662		126.524		126.905		98.0662		97.2685			96.352		99.5975		95.8561		114.595		150.293		126.112		
55.5559		13.7828		99.9474		98.0526		126.299		126.239		98.0526		96.8364			94.995		99.9474		95.5668		134.647		134.568		115.057		
57.0751		11.9054		99.6835		98.0213		126.449		126.482		98.0213		97.0204			95.5585		99.6835		95.8191		138.415		154.827		121.841		
57.8546		12.9016		99.7048		97.9719		126.319		126.451		97.9719		96.8796			95.3723		99.7048		95.5618		121.096		145.098		122.659		
60.0573		13.7949		99.9388		98.1285		126.126		126.657		98.1285		97.1111			95.8995		99.9388		95.495		117.16		132.306		135.198		
55.5694		12.096		99.9873		98.3924		126.581		126.467		98.3924		97.3875			95.8398		99.9873		96.3354		109.048		136.124		126.789		
56.617		11.422		99.6371		98.133		126.624		126.629		98.133		97.2047			95.9096		99.6371		96.0674		122.084		149.978		149.111		
