^C:\USERS\CALVIN\DOCUMENTS\FAU FALL 2014\FOUNDATIONS OF COMPUTER SCIENCE LAB\VS PROJECTS\LAB 5\VARIABLESCOPEEXP1\VARIABLESCOPEEXP1\VARIABLENAMESCOPE1.CPP
C:\USERS\CALVIN\DOCUMENTS\FAU FALL 2014\FOUNDATIONS OF COMPUTER SCIENCE LAB\VS PROJECTS\LAB 5\VARIABLESCOPEEXP1\VARIABLESCOPEEXP1\DEBUG\VC120.PDB
C:\USERS\CALVIN\DOCUMENTS\FAU FALL 2014\FOUNDATIONS OF COMPUTER SCIENCE LAB\VS PROJECTS\LAB 5\VARIABLESCOPEEXP1\VARIABLESCOPEEXP1\DEBUG\VC120.IDB
C:\USERS\CALVIN\DOCUMENTS\FAU FALL 2014\FOUNDATIONS OF COMPUTER SCIENCE LAB\VS PROJECTS\LAB 5\VARIABLESCOPEEXP1\VARIABLESCOPEEXP1\DEBUG\VARIABLENAMESCOPE1.OBJ
^C:\USERS\CALVIN\DOWNLOADS\FOUNDATIONS OF COMPUTER SCIENCE LAB\VS PROJECTS\LAB 5\VARIABLESCOPEEXP1\VARIABLESCOPEEXP1\VARIABLENAMESCOPE1.CPP
C:\USERS\CALVIN\DOWNLOADS\FOUNDATIONS OF COMPUTER SCIENCE LAB\VS PROJECTS\LAB 5\VARIABLESCOPEEXP1\VARIABLESCOPEEXP1\DEBUG\VC120.PDB
C:\USERS\CALVIN\DOWNLOADS\FOUNDATIONS OF COMPUTER SCIENCE LAB\VS PROJECTS\LAB 5\VARIABLESCOPEEXP1\VARIABLESCOPEEXP1\DEBUG\VC120.IDB
C:\USERS\CALVIN\DOWNLOADS\FOUNDATIONS OF COMPUTER SCIENCE LAB\VS PROJECTS\LAB 5\VARIABLESCOPEEXP1\VARIABLESCOPEEXP1\DEBUG\VARIABLENAMESCOPE1.OBJ
