^C:\USERS\CALVIN\DOCUMENTS\FAU FALL 2014\FOUNDATIONS OF COMPUTER SCIENCE LAB\VS PROJECTS\LAB 5\VARIABLESCOPEEXP1\VARIABLESCOPEEXP1\DEBUG\VARIABLENAMESCOPE1.OBJ
C:\USERS\CALVIN\DOCUMENTS\FAU FALL 2014\FOUNDATIONS OF COMPUTER SCIENCE LAB\VS PROJECTS\LAB 5\VARIABLESCOPEEXP1\DEBUG\VARIABLESCOPEEXP1.ILK
C:\USERS\CALVIN\DOCUMENTS\FAU FALL 2014\FOUNDATIONS OF COMPUTER SCIENCE LAB\VS PROJECTS\LAB 5\VARIABLESCOPEEXP1\DEBUG\VARIABLESCOPEEXP1.EXE
C:\USERS\CALVIN\DOCUMENTS\FAU FALL 2014\FOUNDATIONS OF COMPUTER SCIENCE LAB\VS PROJECTS\LAB 5\VARIABLESCOPEEXP1\DEBUG\VARIABLESCOPEEXP1.PDB
^C:\USERS\CALVIN\DOWNLOADS\FOUNDATIONS OF COMPUTER SCIENCE LAB\VS PROJECTS\LAB 5\VARIABLESCOPEEXP1\VARIABLESCOPEEXP1\DEBUG\VARIABLENAMESCOPE1.OBJ
C:\USERS\CALVIN\DOWNLOADS\FOUNDATIONS OF COMPUTER SCIENCE LAB\VS PROJECTS\LAB 5\VARIABLESCOPEEXP1\DEBUG\VARIABLESCOPEEXP1.ILK
C:\USERS\CALVIN\DOWNLOADS\FOUNDATIONS OF COMPUTER SCIENCE LAB\VS PROJECTS\LAB 5\VARIABLESCOPEEXP1\DEBUG\VARIABLESCOPEEXP1.EXE
C:\USERS\CALVIN\DOWNLOADS\FOUNDATIONS OF COMPUTER SCIENCE LAB\VS PROJECTS\LAB 5\VARIABLESCOPEEXP1\DEBUG\VARIABLESCOPEEXP1.PDB
