^C:\USERS\CALVIN\DOCUMENTS\VISUAL STUDIO 2012\PROJECTS\FOUNDATIONS OF COMPUTER SCIENCE LAB\SIMPLETYPESEXP1\SIMPLETYPESEXP1\DEBUG\SIMPLETYPESDEC1.OBJ
C:\USERS\CALVIN\DOCUMENTS\VISUAL STUDIO 2012\PROJECTS\FOUNDATIONS OF COMPUTER SCIENCE LAB\SIMPLETYPESEXP1\DEBUG\SIMPLETYPESEXP1.ILK
C:\USERS\CALVIN\DOCUMENTS\VISUAL STUDIO 2012\PROJECTS\FOUNDATIONS OF COMPUTER SCIENCE LAB\SIMPLETYPESEXP1\DEBUG\SIMPLETYPESEXP1.EXE
C:\USERS\CALVIN\DOCUMENTS\VISUAL STUDIO 2012\PROJECTS\FOUNDATIONS OF COMPUTER SCIENCE LAB\SIMPLETYPESEXP1\DEBUG\SIMPLETYPESEXP1.PDB
