^C:\USERS\TRAVI\GOOGLE DRIVE\FALL 2015\DATA STRUCTURES\ASSIGNMENTS\ASSIGNMENT 5B\STACK\STACK\MAIN.CPP|C:\USERS\TRAVI\GOOGLE DRIVE\FALL 2015\DATA STRUCTURES\ASSIGNMENTS\ASSIGNMENT 5B\STACK\STACK\STACK.CPP
C:\USERS\TRAVI\GOOGLE DRIVE\FALL 2015\DATA STRUCTURES\ASSIGNMENTS\ASSIGNMENT 5B\STACK\STACK\DEBUG\VC120.PDB
C:\USERS\TRAVI\GOOGLE DRIVE\FALL 2015\DATA STRUCTURES\ASSIGNMENTS\ASSIGNMENT 5B\STACK\STACK\DEBUG\VC120.IDB
C:\USERS\TRAVI\GOOGLE DRIVE\FALL 2015\DATA STRUCTURES\ASSIGNMENTS\ASSIGNMENT 5B\STACK\STACK\DEBUG\MAIN.OBJ
C:\USERS\TRAVI\GOOGLE DRIVE\FALL 2015\DATA STRUCTURES\ASSIGNMENTS\ASSIGNMENT 5B\STACK\STACK\DEBUG\STACK.OBJ
^C:\USERS\TRAVI\GOOGLE DRIVE\FALL 2015\DATA STRUCTURES\ASSIGNMENTS\ASSIGNMENT 5B\STACK\STACK\MAIN.CPP
C:\USERS\TRAVI\GOOGLE DRIVE\FALL 2015\DATA STRUCTURES\ASSIGNMENTS\ASSIGNMENT 5B\STACK\STACK\DEBUG\VC120.PDB
C:\USERS\TRAVI\GOOGLE DRIVE\FALL 2015\DATA STRUCTURES\ASSIGNMENTS\ASSIGNMENT 5B\STACK\STACK\DEBUG\VC120.IDB
C:\USERS\TRAVI\GOOGLE DRIVE\FALL 2015\DATA STRUCTURES\ASSIGNMENTS\ASSIGNMENT 5B\STACK\STACK\DEBUG\MAIN.OBJ
^C:\USERS\TRAVI\GOOGLE DRIVE\FALL 2015\DATA STRUCTURES\ASSIGNMENTS\ASSIGNMENT 5B\STACK\STACK\STACK.CPP
C:\USERS\TRAVI\GOOGLE DRIVE\FALL 2015\DATA STRUCTURES\ASSIGNMENTS\ASSIGNMENT 5B\STACK\STACK\DEBUG\VC120.PDB
C:\USERS\TRAVI\GOOGLE DRIVE\FALL 2015\DATA STRUCTURES\ASSIGNMENTS\ASSIGNMENT 5B\STACK\STACK\DEBUG\VC120.IDB
C:\USERS\TRAVI\GOOGLE DRIVE\FALL 2015\DATA STRUCTURES\ASSIGNMENTS\ASSIGNMENT 5B\STACK\STACK\DEBUG\STACK.OBJ
