^C:\USERS\CALVIN\DOCUMENTS\FAU FALL 2014\FOUNDATIONS OF COMPUTER SCIENCE LAB\VS PROJECTS\LAB 7\STRUCTURES\STATICARRAYSEXP2\STATICARRAYSEXP2\DEBUG\STATICARRAYS2.OBJ
C:\USERS\CALVIN\DOCUMENTS\FAU FALL 2014\FOUNDATIONS OF COMPUTER SCIENCE LAB\VS PROJECTS\LAB 7\STRUCTURES\STATICARRAYSEXP2\DEBUG\STATICARRAYSEXP2.ILK
C:\USERS\CALVIN\DOCUMENTS\FAU FALL 2014\FOUNDATIONS OF COMPUTER SCIENCE LAB\VS PROJECTS\LAB 7\STRUCTURES\STATICARRAYSEXP2\DEBUG\STATICARRAYSEXP2.EXE
C:\USERS\CALVIN\DOCUMENTS\FAU FALL 2014\FOUNDATIONS OF COMPUTER SCIENCE LAB\VS PROJECTS\LAB 7\STRUCTURES\STATICARRAYSEXP2\DEBUG\STATICARRAYSEXP2.PDB
