^C:\USERS\CALVIN\DOCUMENTS\FAU FALL 2014\FOUNDATIONS OF COMPUTER SCIENCE LAB\VS PROJECTS\LAB 8\LINKEDLISTEXP2\LINKEDLISTEXP2\DEBUG\LINKEDLIST2.OBJ
C:\USERS\CALVIN\DOCUMENTS\FAU FALL 2014\FOUNDATIONS OF COMPUTER SCIENCE LAB\VS PROJECTS\LAB 8\LINKEDLISTEXP2\DEBUG\LINKEDLISTEXP2.ILK
C:\USERS\CALVIN\DOCUMENTS\FAU FALL 2014\FOUNDATIONS OF COMPUTER SCIENCE LAB\VS PROJECTS\LAB 8\LINKEDLISTEXP2\DEBUG\LINKEDLISTEXP2.EXE
C:\USERS\CALVIN\DOCUMENTS\FAU FALL 2014\FOUNDATIONS OF COMPUTER SCIENCE LAB\VS PROJECTS\LAB 8\LINKEDLISTEXP2\DEBUG\LINKEDLISTEXP2.PDB
