^C:\USERS\CALVIN\DOCUMENTS\FAU FALL 2014\FOUNDATIONS OF COMPUTER SCIENCE LAB\VS PROJECTS\LAB 6\CPLUSPLUSSTRINGSEXP1\CPLUSPLUSSTRINGSEXP1\CPLUSPLUSSTRINGS1.CPP
C:\USERS\CALVIN\DOCUMENTS\FAU FALL 2014\FOUNDATIONS OF COMPUTER SCIENCE LAB\VS PROJECTS\LAB 6\CPLUSPLUSSTRINGSEXP1\CPLUSPLUSSTRINGSEXP1\DEBUG\VC120.PDB
C:\USERS\CALVIN\DOCUMENTS\FAU FALL 2014\FOUNDATIONS OF COMPUTER SCIENCE LAB\VS PROJECTS\LAB 6\CPLUSPLUSSTRINGSEXP1\CPLUSPLUSSTRINGSEXP1\DEBUG\VC120.IDB
C:\USERS\CALVIN\DOCUMENTS\FAU FALL 2014\FOUNDATIONS OF COMPUTER SCIENCE LAB\VS PROJECTS\LAB 6\CPLUSPLUSSTRINGSEXP1\CPLUSPLUSSTRINGSEXP1\DEBUG\CPLUSPLUSSTRINGS1.OBJ
