^C:\USERS\CALVIN\DOCUMENTS\FAU FALL 2014\FOUNDATIONS OF COMPUTER SCIENCE LAB\VS PROJECTS\LAB 6\CPLUSPLUSSTRINGSEXP1\CPLUSPLUSSTRINGSEXP1\DEBUG\CPLUSPLUSSTRINGS1.OBJ
C:\USERS\CALVIN\DOCUMENTS\FAU FALL 2014\FOUNDATIONS OF COMPUTER SCIENCE LAB\VS PROJECTS\LAB 6\CPLUSPLUSSTRINGSEXP1\DEBUG\CPLUSPLUSSTRINGSEXP1.ILK
C:\USERS\CALVIN\DOCUMENTS\FAU FALL 2014\FOUNDATIONS OF COMPUTER SCIENCE LAB\VS PROJECTS\LAB 6\CPLUSPLUSSTRINGSEXP1\DEBUG\CPLUSPLUSSTRINGSEXP1.EXE
C:\USERS\CALVIN\DOCUMENTS\FAU FALL 2014\FOUNDATIONS OF COMPUTER SCIENCE LAB\VS PROJECTS\LAB 6\CPLUSPLUSSTRINGSEXP1\DEBUG\CPLUSPLUSSTRINGSEXP1.PDB
