^C:\USERS\CALVIN\DOCUMENTS\FAU FALL 2014\FOUNDATIONS OF COMPUTER SCIENCE LAB\VS PROJECTS\LAB 7\STRUCTURES\COPYCONSTRUCTOREXP2\COPYCONSTRUCTOREXP2\DEBUG\COPYCONSTRUCTOR2.OBJ
C:\USERS\CALVIN\DOCUMENTS\FAU FALL 2014\FOUNDATIONS OF COMPUTER SCIENCE LAB\VS PROJECTS\LAB 7\STRUCTURES\COPYCONSTRUCTOREXP2\DEBUG\COPYCONSTRUCTOREXP2.ILK
C:\USERS\CALVIN\DOCUMENTS\FAU FALL 2014\FOUNDATIONS OF COMPUTER SCIENCE LAB\VS PROJECTS\LAB 7\STRUCTURES\COPYCONSTRUCTOREXP2\DEBUG\COPYCONSTRUCTOREXP2.EXE
C:\USERS\CALVIN\DOCUMENTS\FAU FALL 2014\FOUNDATIONS OF COMPUTER SCIENCE LAB\VS PROJECTS\LAB 7\STRUCTURES\COPYCONSTRUCTOREXP2\DEBUG\COPYCONSTRUCTOREXP2.PDB
