^C:\USERS\TRAVI\GOOGLE DRIVE\FALL 2015\DATA STRUCTURES\ASSIGNMENTS\ASSIGNMENT 3\ASSIGNMENT 3\ASSIGNMENT 3\DEBUG\DYNAMIC_ARRAY_DRIVER.OBJ|C:\USERS\TRAVI\GOOGLE DRIVE\FALL 2015\DATA STRUCTURES\ASSIGNMENTS\ASSIGNMENT 3\ASSIGNMENT 3\ASSIGNMENT 3\DEBUG\TLIST.OBJ
C:\PROGRAM FILES (X86)\WINDOWS KITS\8.1\LIB\WINV6.3\UM\X86\KERNEL32.LIB
C:\PROGRAM FILES (X86)\WINDOWS KITS\8.1\LIB\WINV6.3\UM\X86\USER32.LIB
C:\PROGRAM FILES (X86)\WINDOWS KITS\8.1\LIB\WINV6.3\UM\X86\GDI32.LIB
C:\PROGRAM FILES (X86)\WINDOWS KITS\8.1\LIB\WINV6.3\UM\X86\WINSPOOL.LIB
C:\PROGRAM FILES (X86)\WINDOWS KITS\8.1\LIB\WINV6.3\UM\X86\COMDLG32.LIB
C:\PROGRAM FILES (X86)\WINDOWS KITS\8.1\LIB\WINV6.3\UM\X86\ADVAPI32.LIB
C:\PROGRAM FILES (X86)\WINDOWS KITS\8.1\LIB\WINV6.3\UM\X86\SHELL32.LIB
C:\PROGRAM FILES (X86)\WINDOWS KITS\8.1\LIB\WINV6.3\UM\X86\OLE32.LIB
C:\PROGRAM FILES (X86)\WINDOWS KITS\8.1\LIB\WINV6.3\UM\X86\OLEAUT32.LIB
C:\PROGRAM FILES (X86)\WINDOWS KITS\8.1\LIB\WINV6.3\UM\X86\UUID.LIB
C:\PROGRAM FILES (X86)\WINDOWS KITS\8.1\LIB\WINV6.3\UM\X86\ODBC32.LIB
C:\PROGRAM FILES (X86)\WINDOWS KITS\8.1\LIB\WINV6.3\UM\X86\ODBCCP32.LIB
C:\USERS\TRAVI\GOOGLE DRIVE\FALL 2015\DATA STRUCTURES\ASSIGNMENTS\ASSIGNMENT 3\ASSIGNMENT 3\ASSIGNMENT 3\DEBUG\DYNAMIC_ARRAY_DRIVER.OBJ
C:\USERS\TRAVI\GOOGLE DRIVE\FALL 2015\DATA STRUCTURES\ASSIGNMENTS\ASSIGNMENT 3\ASSIGNMENT 3\ASSIGNMENT 3\DEBUG\TLIST.OBJ
C:\WINDOWS\SYSTEM32\TZRES.DLL
C:\WINDOWS\GLOBALIZATION\SORTING\SORTDEFAULT.NLS
C:\PROGRAM FILES (X86)\MICROSOFT VISUAL STUDIO 12.0\VC\LIB\MSVCPRTD.LIB
C:\PROGRAM FILES (X86)\MICROSOFT VISUAL STUDIO 12.0\VC\LIB\MSVCRTD.LIB
C:\PROGRAM FILES (X86)\MICROSOFT VISUAL STUDIO 12.0\VC\LIB\OLDNAMES.LIB
