^C:\USERS\CALVIN\DOCUMENTS\OHNOYOUFOUNDMYCODE\THEBEGINNING\VS 2013 PROJECTS\VECTORS\QUIZ 4\QUIZ 4\SOURCE.CPP
C:\USERS\CALVIN\DOCUMENTS\OHNOYOUFOUNDMYCODE\THEBEGINNING\VS 2013 PROJECTS\VECTORS\QUIZ 4\QUIZ 4\DEBUG\VC120.PDB
C:\USERS\CALVIN\DOCUMENTS\OHNOYOUFOUNDMYCODE\THEBEGINNING\VS 2013 PROJECTS\VECTORS\QUIZ 4\QUIZ 4\DEBUG\VC120.IDB
C:\USERS\CALVIN\DOCUMENTS\OHNOYOUFOUNDMYCODE\THEBEGINNING\VS 2013 PROJECTS\VECTORS\QUIZ 4\QUIZ 4\DEBUG\SOURCE.OBJ
